Proyecto Estadística
…
# Filtrado de datos
datos = filter(datos, Sexo != "Ambos sexos")
datos = filter(datos, `Tipo de indicador` != "Ganancia (bruta) por hora y año")
datos = filter(datos, `Tipo de discapacidad` != "No consta")
datos = filter(datos, `Tipo de discapacidad` != "Mental")
datos = filter(datos, `Tipo de discapacidad` != "Total")
datos = filter(datos, `Total` > 0)

print(datos)

## # A tibble: 48 × 6
##    Sexo  `Tipo de discapacidad` `Tipo de indicador` Personas con discapa…¹   año
##    <chr> <chr>                  <chr>               <chr>                  <dbl>
##  1 Homb… Física y otras         Ganancia (bruta) p… Personas con discapac…  2022
##  2 Homb… Física y otras         Ganancia (bruta) p… Personas con discapac…  2021
##  3 Homb… Física y otras         Ganancia (bruta) p… Personas con discapac…  2020
##  4 Homb… Física y otras         Ganancia (bruta) p… Personas con discapac…  2019
##  5 Homb… Física y otras         Ganancia (bruta) p… Personas con discapac…  2018
##  6 Homb… Física y otras         Ganancia (bruta) p… Personas con discapac…  2017
##  7 Homb… Física y otras         Ganancia (bruta) p… Personas con discapac…  2016
##  8 Homb… Física y otras         Ganancia (bruta) p… Personas con discapac…  2015
##  9 Homb… Física y otras         Ganancia (bruta) p… Personas con discapac…  2014
## 10 Homb… Física y otras         Ganancia (bruta) p… Personas con discapac…  2013
## # ℹ 38 more rows
## # ℹ abbreviated name: ¹​`Personas con discapacidad`
## # ℹ 1 more variable: Total <dbl>
…
